RIVERSEA: Preliminary explorations – Postdoc Project Reports
…
[1] 0

We see that there is no duplication for the Vilaine network. We can proceed to the next step.

2. Fish abundance data

2.1 Load data

base::load(here(dest_dir, "zenodo", "processed_data", "poissons_env_temp.RData"))

catches

# A tibble: 69,823 × 6
   sta_id pop_id ope_id annee esp_code_alternatif effectif
    <int>  <int>  <int> <dbl> <chr>                  <int>
 1   8530  31870  19943  2017 TRF                      159
 2   8530  31870  19943  2017 VAI                       82
 3   8530  31870  19944  2011 TRF                      217
 4   8530  31870  19944  2011 VAI                        7
 5   8530  31870  19945  2009 TRF                      232
 6   8530  31870  19945  2009 VAI                        9
 7   8530  31870  19946  2007 TRF                      213
 8   8530  31870  19946  2007 VAI                       36
 9   8530  31870  83029  2019 TRF                      126
10   8530  31870  83029  2019 VAI                      104
# ℹ 69,813 more rows
…
